/projects/555-hw2/src/test/java/edu/upenn/cis/stormlite/WordSpout.java
/projects/555-hw2/src/test/java/edu/upenn/cis/cis455/RunAllTests.java
/projects/555-hw2/src/test/java/edu/upenn/cis/stormlite/TestWordCount.java
/projects/555-hw2/src/test/java/edu/upenn/cis/stormlite/PrintBolt.java
/projects/555-hw2/src/test/java/edu/upenn/cis/stormlite/WordCounter.java
